4 Data Wrangling with dplyr – Statistical Modeling and Computation for Educational Scientists
…
[1] 23272

One last example will show how we use the additional arguments in the function following the pipe operator. For example, say we wanted to use the print() function to print the tibble/data frame, and we wanted to show all of the columns. The print() function would include not only the name of the tibble we wanted to print, but also the argument width=Inf. Here is the syntax for this:

# Print all columns of comics tibble
print(comics, width = Inf)

Using piping, the syntax would be:

# Print all columns of comics tibble
comics |> print(width = Inf)

# A tibble: 23,272 × 14
   character                  comic  reality   identity        alignment
   <chr>                      <chr>  <chr>     <chr>           <chr>    
 1 "14"                       Marvel Earth-616 Secret Identity Bad      
 2 "88"                       Marvel Earth-616 Public Identity Bad      
 3 "99"                       Marvel Earth-616 Secret Identity Neutral  
 4 "107"                      Marvel Earth-616 Secret Identity Neutral  
 5 "'Spinner"                 Marvel Earth-616 Secret Identity Good     
 6 "\"Thumper\" Morgan"       Marvel Earth-616 Secret Identity Bad      
 7 "11-Ball"                  Marvel Earth-616 Secret Identity Bad      
 8 "115 (Legion Personality)" Marvel Earth-616 Secret Identity Neutral  
 9 "181 (Legion Personality)" Marvel Earth-616 Secret Identity Neutral  
10 "1X"                       Marvel Earth-616 Public Identity Good     
   eye_color hair_color sex    lgbtq lgbtq_note alive  appearances
   <chr>     <chr>      <chr>  <chr> <chr>      <chr>        <dbl>
 1 <NA>      <NA>       Female No    <NA>       Living           1
 2 Blue      Blond      Male   No    <NA>       Living           3
 3 Blue      <NA>       Male   No    <NA>       Living           1
 4 Green     <NA>       Male   No    <NA>       Living           1
 5 <NA>      <NA>       Male   No    <NA>       Living          NA
 6 <NA>      Bald       Male   No    <NA>       Living          NA
 7 <NA>      <NA>       Male   No    <NA>       Living           1
 8 Blue      White      Female No    <NA>       Living           1
 9 <NA>      <NA>       <NA>   No    <NA>       Living           1
10 <NA>      Blond      Male   No    <NA>       Living           1
   first_appear_date first_appear_year
   <chr>                         <dbl>
 1 1994, November 01              1994
 2 1994, March 01                 1994
 3 1994, November 01              1994
 4 1994, November 01              1994
 5 2022, November 07              2007
 6 1965, February 01              1965
 7 1991, July 01                  1991
 8 2022, August 10                2010
 9 2022, July 11                  2011
10 1940, March 01                 1940
# ℹ 23,262 more rows
…
arrange(): Sort and re-order data in a data frame.

summarize(): Compute summaries of columns in a data frame.

group_by(): Group the data to carry out computations for each group.

4.3 Sorting the Data: Arranging

To answer our initial set of research questions related to early representation of LGBTQ characters in comics, it is useful to sort the data by both LGBTQ status and year of first appearance. The arrange() function sorts the data based on the values within one or more specified columns. The data is ordered based on the column name provided in the argument(s). The syntax below sorts the rows in the comics data frame from earliest to most recent year of first appearance.

# Sort data from earliest to most recent year of first appearance
comics |>
  arrange(first_appear_year)

# A tibble: 23,272 × 14
   character   comic reality identity alignment eye_color hair_color sex   lgbtq
   <chr>       <chr> <chr>   <chr>    <chr>     <chr>     <chr>      <chr> <chr>
 1 Richard Oc… DC    New Ea… Secret … <NA>      Grey      Black      Male  No   
 2 Arthur Pen… DC    New Ea… Public … Good      Brown     Brown      Male  No   
 3 Bedivere    DC    New Ea… <NA>     <NA>      <NA>      <NA>       Male  No   
 4 Franklin D… DC    New Ea… Public … Good      <NA>      Grey       Male  No   
 5 Gareth      DC    New Ea… <NA>     <NA>      <NA>      <NA>       Male  No   
 6 Gawain      DC    New Ea… Public … Good      <NA>      <NA>       Male  No   
 7 Guinevere   DC    New Ea… Public … Good      <NA>      Blond      Fema… No   
 8 Lady of th… DC    New Ea… <NA>     Good      Blue      Blue       Fema… No   
 9 Lancelot    DC    New Ea… Public … Good      <NA>      <NA>       Male  No   
10 Merlin      DC    New Ea… Secret … Neutral   Black     White      Male  No   
# ℹ 23,262 more rows
# ℹ 5 more variables: lgbtq_note <chr>, alive <chr>, appearances <dbl>,
#   first_appear_date <chr>, first_appear_year <dbl>

Here we see the earliest character in these data (Richard Occult) appeared in 1935. This, however, does not give us the first LBGTQ character. To determine this, we need to sort on LGBTQ status in addition to year of first appearance.

Providing the arrange() function multiple arguments sort initially by the column name given in first argument, and then by the columns given in subsequent arguments. Here the data are sorted first by LGBTQ status (alphabetically since lgbtq is a character string) and then by year of first appearance.

# Sort data by LGBTQ status and then from earliest to most recent year of first appearance
comics |>
  arrange(lgbtq, first_appear_year)

# A tibble: 23,272 × 14
   character   comic reality identity alignment eye_color hair_color sex   lgbtq
   <chr>       <chr> <chr>   <chr>    <chr>     <chr>     <chr>      <chr> <chr>
 1 Richard Oc… DC    New Ea… Secret … <NA>      Grey      Black      Male  No   
 2 Arthur Pen… DC    New Ea… Public … Good      Brown     Brown      Male  No   
 3 Bedivere    DC    New Ea… <NA>     <NA>      <NA>      <NA>       Male  No   
 4 Franklin D… DC    New Ea… Public … Good      <NA>      Grey       Male  No   
 5 Gareth      DC    New Ea… <NA>     <NA>      <NA>      <NA>       Male  No   
 6 Gawain      DC    New Ea… Public … Good      <NA>      <NA>       Male  No   
 7 Guinevere   DC    New Ea… Public … Good      <NA>      Blond      Fema… No   
 8 Lady of th… DC    New Ea… <NA>     Good      Blue      Blue       Fema… No   
 9 Lancelot    DC    New Ea… Public … Good      <NA>      <NA>       Male  No   
10 Merlin      DC    New Ea… Secret … Neutral   Black     White      Male  No   
# ℹ 23,262 more rows
# ℹ 5 more variables: lgbtq_note <chr>, alive <chr>, appearances <dbl>,
#   first_appear_date <chr>, first_appear_year <dbl>

Because No is alphabetically before Yes, the non-LGBTQ characters are printed first. Because only the first 10 rows of a tibble are printed (and all 10 are non-LGBTQ characters), we still can’t quite answer our research question. If you want to see all of the sorted data or operate on it further, you need to (a) explicitly tell R to print all of the rows, or (b) assign the output into an object which can be viewed and scrolled through by clicking on the object in the RStudio Environment pane.

To print all of the rows to the console, we can pipe the sorted data into the print() function, and include the argument N=Inf. Reminder: Best practice is to start a new line after each pipe operator!

# Sort data by LGBTQ status and then from earliest to most recent year of first appearance
# Print all the rows
comics |>
  arrange(lgbtq, first_appear_year) |>
  print(N = Inf)

# A tibble: 23,272 × 14
   character   comic reality identity alignment eye_color hair_color sex   lgbtq
   <chr>       <chr> <chr>   <chr>    <chr>     <chr>     <chr>      <chr> <chr>
 1 Richard Oc… DC    New Ea… Secret … <NA>      Grey      Black      Male  No   
 2 Arthur Pen… DC    New Ea… Public … Good      Brown     Brown      Male  No   
 3 Bedivere    DC    New Ea… <NA>     <NA>      <NA>      <NA>       Male  No   
 4 Franklin D… DC    New Ea… Public … Good      <NA>      Grey       Male  No   
 5 Gareth      DC    New Ea… <NA>     <NA>      <NA>      <NA>       Male  No   
 6 Gawain      DC    New Ea… Public … Good      <NA>      <NA>       Male  No   
 7 Guinevere   DC    New Ea… Public … Good      <NA>      Blond      Fema… No   
 8 Lady of th… DC    New Ea… <NA>     Good      Blue      Blue       Fema… No   
 9 Lancelot    DC    New Ea… Public … Good      <NA>      <NA>       Male  No   
10 Merlin      DC    New Ea… Secret … Neutral   Black     White      Male  No   
# ℹ 23,262 more rows
# ℹ 5 more variables: lgbtq_note <chr>, alive <chr>, appearances <dbl>,
#   first_appear_date <chr>, first_appear_year <dbl>
…
Based on an examination of the sorted data, we find the first appearance of an LGBTQ character is Jack Casey in 1940.

4.3.1 Sorting in Descending Order

Rather than scrolling through the data, we could also have sorted the data so that the characters with LGBTQ status of “Yes” are printed first. To do this we want to sort the data initially (using thelgbtq column) in reverse alphabetical order (“Yes” followed by “No”).

Use the desc() function on a column name to sort the data in descending order. Here the data are sorted in descending order by LGBTQ status and then by year of first appearance (in ascending order).

# Sort data by LGBTQ status and then from earliest to most recent year of first appearance
comics |>
  arrange(desc(lgbtq), first_appear_year)

# A tibble: 23,272 × 14
   character   comic reality identity alignment eye_color hair_color sex   lgbtq
   <chr>       <chr> <chr>   <chr>    <chr>     <chr>     <chr>      <chr> <chr>
 1 Jack Casey  Marv… Earth-… No Dual… Good      <NA>      Brown      Male  Yes  
 2 Mortimer D… DC    New Ea… Secret … Bad       Brown     Brown      Male  Yes  
 3 Roger Aubr… Marv… Earth-… Secret … <NA>      Blue      Blond      Male  Yes  
 4 Chili Storm Marv… Earth-… Public … <NA>      Green     Red        Fema… Yes  
 5 Loki Laufe… Marv… Earth-… No Dual… Neutral   Green     Black      Gend… Yes  
 6 Hartley Ra… DC    New Ea… Secret … Good      Blue      Red        Male  Yes  
 7 Jonathan C… Marv… Earth-… Secret … Good      Blue      Red        Male  Yes  
 8 Brain       DC    New Ea… Secret … Bad       <NA>      <NA>       Male  Yes  
 9 Mallah      DC    New Ea… Secret … Bad       Brown     Brown      Male  Yes  
10 Natalia Ro… Marv… Earth-… Public … Good      Green     Red        Fema… Yes  
# ℹ 23,262 more rows
# ℹ 5 more variables: lgbtq_note <chr>, alive <chr>, appearances <dbl>,
#   first_appear_date <chr>, first_appear_year <dbl>

4.4 Obtain a Subset of Rows: Filtering

There are many times in research applications that an educational scientist will need to select a subset of data cases. This type of application, for example, is quite common when we carry out demographic analyses (e.g., select the special education students, select students on free/reduced-price lunch). To select a subset of rows from a tibble or data frame, we will pipe the data frame we want to select rows from into the filter() function.

The argument(s) for the filter() function are logical expressions that will be used to select the rows. For example, suppose we wanted to select the LGBTQ characters (i.e., rows) from the comics data frame. We would need a logical expression that returns a TRUE value for all the LGBTQ characters. One such logical expression is: lgbtq=="Yes". Recall that a single equals sign (=) is the assignment operator and that to say “is equal to”, we need to use two equals signs (==). Including this logical expression in the filter() function, the syntax for selecting the LGBTQ characters is then:

# Select the LGBTQ characters
comics |>
  filter(lgbtq == "Yes")

# A tibble: 155 × 14
   character   comic reality identity alignment eye_color hair_color sex   lgbtq
   <chr>       <chr> <chr>   <chr>    <chr>     <chr>     <chr>      <chr> <chr>
 1 Achilles W… DC    New Ea… Secret … Good      Blue      Blond      Male  Yes  
 2 Aimee (Cli… Marv… Earth-… No Dual… Good      Black     Pink       Fema… Yes  
 3 Akihiro     Marv… Earth-… Secret … Bad       Blue      Black      Male  Yes  
 4 Alana Jobs… Marv… Earth-… Secret … Good      Green     Brown      Fema… Yes  
 5 Aleksandr … DC    New Ea… Secret … Good      <NA>      Brown      Male  Yes  
 6 Alexander … DC    New Ea… Public … Bad       Brown     Red        Male  Yes  
 7 Amy Chen    Marv… Earth-… Secret … Neutral   Black     Black      Fema… Yes  
 8 Anaya       DC    New Ea… <NA>     Good      Brown     Brown      Fema… Yes  
 9 Anissa Pie… DC    New Ea… Secret … Good      Brown     Black      Fema… Yes  
10 Annabelle … Marv… Earth-… Public … Good      Blue      Brown      Fema… Yes  
# ℹ 145 more rows
# ℹ 5 more variables: lgbtq_note <chr>, alive <chr>, appearances <dbl>,
#   first_appear_date <chr>, first_appear_year <dbl>
…
[1] 5890

4.5 Selecting a Subset of Columns

Suppose a journalist at Lavender Magazine is writing a story about the representation of LGBTQ comic characters and has asked you to create a new dataset for their work that only includes the LGBTQ comic characters. Moreover, this new dataset should also only include the characters’ name, year of first appearance, and the LGBTQ note. To complete this task, we need to select not only a subset of rows from the original data, but also a subset of the columns.

To select a subset of columns, we will use the select() function. The argument(s) for this function are the column names of the data frame that you want to select. For example, to select the character, first_appear_year, and lgbtq_note columns from the comics data frame we would use the following syntax:

# Select a subset of columns
comics |>
  select(character, first_appear_year, lgbtq_note)

# A tibble: 23,272 × 3
   character                  first_appear_year lgbtq_note
   <chr>                                  <dbl> <chr>     
 1 "14"                                    1994 <NA>      
 2 "88"                                    1994 <NA>      
 3 "99"                                    1994 <NA>      
 4 "107"                                   1994 <NA>      
 5 "'Spinner"                              2007 <NA>      
 6 "\"Thumper\" Morgan"                    1965 <NA>      
 7 "11-Ball"                               1991 <NA>      
 8 "115 (Legion Personality)"              2010 <NA>      
 9 "181 (Legion Personality)"              2011 <NA>      
10 "1X"                                    1940 <NA>      
# ℹ 23,262 more rows
…
Error in `filter()`:
ℹ In argument: `lgbtq == "Yes"`.
Caused by error:
! object 'lgbtq' not found

# This order gets us the data we want
comics |>
  filter(lgbtq == "Yes") |>
  select(character, first_appear_year, lgbtq_note)

# A tibble: 155 × 3
   character                       first_appear_year lgbtq_note
   <chr>                                       <dbl> <chr>     
 1 Achilles Warkiller                           2009 Homosexual
 2 Aimee (Clint Barton's neighbor)              2012 Homosexual
 3 Akihiro                                      2006 Bisexual  
 4 Alana Jobson                                 2008 Homosexual
 5 Aleksandr Creote                             2003 Homosexual
 6 Alexander Burgess                            1989 Homosexual
 7 Amy Chen                                     1992 Homosexual
 8 Anaya                                        2001 Homosexual
 9 Anissa Pierce                                2003 Homosexual
10 Annabelle Riggs                              2013 Homosexual
# ℹ 145 more rows
…
In both of the Mac and PC examples, the part of the pathname called username needs to be modified to be the user name for your computer. Typically this is the username you use to login to your computer.

4.5.1 Helper Functions for select()

There are a number of helper functions you can use within the select() function. For example, starts_with(), ends_with(), and contains(). These let you quickly match larger blocks of columns that meet some criterion. The syntax below illustrates a couple of these functions. You can read about other helper functions and see examples here.

# Select all the columns that have a column name that ends in 'r'
comics |>
  select(ends_with("r"))

# A tibble: 23,272 × 4
   character                  eye_color hair_color first_appear_year
   <chr>                      <chr>     <chr>                  <dbl>
 1 "14"                       <NA>      <NA>                    1994
 2 "88"                       Blue      Blond                   1994
 3 "99"                       Blue      <NA>                    1994
 4 "107"                      Green     <NA>                    1994
 5 "'Spinner"                 <NA>      <NA>                    2007
 6 "\"Thumper\" Morgan"       <NA>      Bald                    1965
 7 "11-Ball"                  <NA>      <NA>                    1991
 8 "115 (Legion Personality)" Blue      White                   2010
 9 "181 (Legion Personality)" <NA>      <NA>                    2011
10 "1X"                       <NA>      Blond                   1940
# ℹ 23,262 more rows

# Select all the columns that have a column name that contains an underscore
comics |>
  select(contains("_"))

# A tibble: 23,272 × 5
   eye_color hair_color lgbtq_note first_appear_date first_appear_year
   <chr>     <chr>      <chr>      <chr>                         <dbl>
 1 <NA>      <NA>       <NA>       1994, November 01              1994
 2 Blue      Blond      <NA>       1994, March 01                 1994
 3 Blue      <NA>       <NA>       1994, November 01              1994
 4 Green     <NA>       <NA>       1994, November 01              1994
 5 <NA>      <NA>       <NA>       2022, November 07              2007
 6 <NA>      Bald       <NA>       1965, February 01              1965
 7 <NA>      <NA>       <NA>       1991, July 01                  1991
 8 Blue      White      <NA>       2022, August 10                2010
 9 <NA>      <NA>       <NA>       2022, July 11                  2011
10 <NA>      Blond      <NA>       1940, March 01                 1940
# ℹ 23,262 more rows

4.5.2 Renaming Columns

You can rename a column by using the rename() function. Here we select the character, eye_color, and hair_color columns from the comics data frame and then rename the eye_color and hair_color columns to eye and hair, respectively. Note that this works similar to assignment in that the new column name is to the left of the equal sign.

# Select 3 columns and rename 2 of them
comics |>
  select(character, eye_color, hair_color) %>%
  rename(eye = eye_color, hair = hair_color)

# A tibble: 23,272 × 3
   character                  eye   hair 
   <chr>                      <chr> <chr>
 1 "14"                       <NA>  <NA> 
 2 "88"                       Blue  Blond
 3 "99"                       Blue  <NA> 
 4 "107"                      Green <NA> 
 5 "'Spinner"                 <NA>  <NA> 
 6 "\"Thumper\" Morgan"       <NA>  Bald 
 7 "11-Ball"                  <NA>  <NA> 
 8 "115 (Legion Personality)" Blue  White
 9 "181 (Legion Personality)" <NA>  <NA> 
10 "1X"                       <NA>  Blond
# ℹ 23,262 more rows
…
