10 Standardized Regression – Statistical Modeling and Computation for Educational Scientists
…
In this chapter, you will learn about standardized regression. You will also learn how the regression coefficients from a simple regression can be computed from other summary measures. This will help you see how these measures impact the regression coefficients. We will use the riverview.csv data to examine whether education level is related to income. To begin, we will load several libraries and import the data into an object called city. We will also fit a model by regressing income on education level and storing those results in an object called lm.a.

# Load libraries
library(corrr)
library(dplyr)
library(ggplot2)
library(readr)

# Import data
city = read_csv(file = "https://raw.githubusercontent.com/zief0002/modeling/main/data/riverview.csv")

#View data
city

# A tibble: 32 × 5
   education income seniority gender     party      
       <dbl>  <dbl>     <dbl> <chr>      <chr>      
 1         8   26.4         9 female     Independent
 2         8   37.4         7 Not female Democrat   
 3        10   34.2        16 female     Independent
 4        10   25.5         1 female     Republican 
 5        10   47.0        14 Not female Democrat   
 6        12   46.5        11 female     Democrat   
 7        12   52.5        16 female     Independent
 8        12   37.7        14 Not female Democrat   
 9        12   50.3        24 Not female Democrat   
10        14   32.6         5 female     Independent
# ℹ 22 more rows
…
