13 Assumptions Underlying the Regression Model – Statistical Modeling and Computation for Educational Scientists
…
# Load libraries
library(corrr)
library(dplyr)
library(ggplot2)
library(patchwork)
library(readr)

# Import data
keith = read_csv(file = "https://raw.githubusercontent.com/zief0002/modeling/main/data/keith-gpa.csv")

# View data
keith

# A tibble: 100 × 3
     gpa homework parent_ed
   <dbl>    <dbl>     <dbl>
 1    78        2        13
 2    79        6        14
 3    79        1        13
 4    89        5        13
 5    82        3        16
 6    77        4        13
 7    88        5        13
 8    70        3        13
 9    86        5        15
10    80        5        14
# ℹ 90 more rows
…
13.3 Empirically Evaluating the Distributional Assumptions

We can use the residuals computed from the empirical data to evaluate the distributional assumptions of linearity, normality, and equal variances. (The assumption of independence is difficult to evaluate using the data, and is better left to a logical argument that refers to the study design.) Recall that the assumptions are about the residuals. To compute the residuals, we will use the augment() function from the {broom} package. We will also write those results into an object, aug_a, so we can compute on it later.

# Load library
library(broom)

# Augment the model to get residuals
aug_a = augment(lm.a)

# View augmented data
aug_a

# A tibble: 100 × 8
     gpa homework .fitted .resid   .hat .sigma   .cooksd .std.resid
   <dbl>    <dbl>   <dbl>  <dbl>  <dbl>  <dbl>     <dbl>      <dbl>
 1    78        2    76.7  1.28  0.0328   7.28 0.000550      0.180 
 2    79        6    81.6 -2.57  0.0120   7.27 0.000776     -0.358 
 3    79        1    75.5  3.50  0.0500   7.27 0.00646       0.495 
 4    89        5    80.4  8.64  0.0100   7.22 0.00728       1.20  
 5    82        3    77.9  4.07  0.0204   7.26 0.00336       0.568 
 6    77        4    79.1 -2.15  0.0128   7.27 0.000579     -0.298 
 7    88        5    80.4  7.64  0.0100   7.23 0.00569       1.06  
 8    70        3    77.9 -7.93  0.0204   7.23 0.0128       -1.11  
 9    86        5    80.4  5.64  0.0100   7.25 0.00310       0.783 
10    80        5    80.4 -0.361 0.0100   7.28 0.0000127    -0.0501
# ℹ 90 more rows
…
