Statistical Modeling and Computation for Educational Scientists - 15 Polychotomous Categorical Predictors
…
Below we write the syntax to create all three dummy variables and save the new columns in the object family.

# Create all three dummy variables
family = family |>
  mutate(
    two_parent = if_else(family_structure == "Two-parent family", 1, 0),
    parent_guardian = if_else(family_structure == "One-parent, one guardian", 1, 0),
    one_parent = if_else(family_structure == "Single-parent family", 1, 0),
    )

# Examine data
family |>
  print(width = Inf)

# A tibble: 910 × 7
   substance_use family_structure     female   gpa two_parent parent_guardian
           <dbl> <chr>                 <dbl> <dbl>      <dbl>           <dbl>
 1       -0.129  Two-parent family         1   3.8          1               0
 2        0.0143 Two-parent family         0   2.5          1               0
 3       -0.594  Two-parent family         1   2.8          1               0
 4       -0.439  Single-parent family      0   3.5          0               0
 5       -0.284  Two-parent family         1   3.3          1               0
 6       -0.284  Two-parent family         0   2.5          1               0
 7       -0.594  Two-parent family         1   2.3          1               0
 8       -0.284  Two-parent family         1   2.5          1               0
 9        3.21   Two-parent family         0   3            1               0
10       -0.594  Two-parent family         0   3            1               0
   one_parent
        <dbl>
 1          0
 2          0
 3          0
 4          1
 5          0
 6          0
 7          0
 8          0
 9          0
10          0
# ℹ 900 more rows
…
