19 Polychotomous Categorical Predictors – Statistical Modeling and Computation for Educational Scientists
…
# Create all eight dummy variables
pew = pew |>
  mutate(
    none    = if_else(news_source == "None", 1, 0),
    con     = if_else(news_source == "Conservative", 1, 0),
    com     = if_else(news_source == "Comedy", 1, 0),
    lib     = if_else(news_source == "Liberal", 1, 0)
    )

# Examine data
pew |>
  print(width = Inf)

# A tibble: 1,094 × 13
      id knowledge news_source   news ideology engagement   age education female
   <dbl>     <dbl> <chr>        <dbl>    <dbl>      <dbl> <dbl>     <dbl> <chr> 
 1     1        50 Conservative    63     39.3       79.5  44.4        14 Yes   
 2     3        45 None            49     75.7       61    45.7        12 Yes   
 3     4        26 None            22     23.5       66.8  39.3        15 Yes   
 4     5        79 None            54     69.5       80.8  59.5        15 No    
 5     6        31 Conservative    65     18         99.6  43.8        12 Yes   
 6     7        22 Conservative    63     33.2       37.4  29.6        10 No    
 7     8        93 Conservative    50     29.7       88.6  29.6        16 No    
 8     9        23 None            12     52.5       82.4  45.1        12 Yes   
 9    10        41 Liberal         16     14         87.3  18.7        11 No    
10    11        23 Liberal         43     62         67    47.5         9 Yes   
    none   con   com   lib
   <dbl> <dbl> <dbl> <dbl>
 1     0     1     0     0
 2     1     0     0     0
 3     1     0     0     0
 4     1     0     0     0
 5     0     1     0     0
 6     0     1     0     0
 7     0     1     0     0
 8     1     0     0     0
 9     0     0     0     1
10     0     0     0     1
# ℹ 1,084 more rows
…
