20 Multiple Comparisons – Statistical Modeling and Computation for Educational Scientists
…
# Read in data and create dummy variables
pew = read_csv(file = "https://raw.githubusercontent.com/zief0002/modeling/main/data/pew.csv") |>
  mutate(
    none    = if_else(news_source == "None", 1, 0),
    con     = if_else(news_source == "Conservative", 1, 0),
    com     = if_else(news_source == "Comedy", 1, 0),
    lib     = if_else(news_source == "Liberal", 1, 0)
    )

# View data
pew

# A tibble: 1,094 × 13
      id knowledge news_source   news ideology engagement   age
   <dbl>     <dbl> <chr>        <dbl>    <dbl>      <dbl> <dbl>
 1     1        50 Conservative    63     39.3       79.5  44.4
 2     3        45 None            49     75.7       61    45.7
 3     4        26 None            22     23.5       66.8  39.3
 4     5        79 None            54     69.5       80.8  59.5
 5     6        31 Conservative    65     18         99.6  43.8
 6     7        22 Conservative    63     33.2       37.4  29.6
 7     8        93 Conservative    50     29.7       88.6  29.6
 8     9        23 None            12     52.5       82.4  45.1
 9    10        41 Liberal         16     14         87.3  18.7
10    11        23 Liberal         43     62         67    47.5
# ℹ 1,084 more rows
# ℹ 6 more variables: education <dbl>, female <chr>, none <dbl>,
#   con <dbl>, com <dbl>, lib <dbl>
…
