18 Dichotomous Categorical Predictors – Statistical Modeling and Computation for Educational Scientists
…
# Import data
mn = read_csv(file = "https://raw.githubusercontent.com/zief0002/modeling/main/data/mn-schools.csv")

# View data
mn

# A tibble: 33 × 5
   name                               grad sector    sat tuition
   <chr>                             <dbl> <chr>   <dbl>   <dbl>
 1 Augsburg College                   65.2 Private  1030    39.3
 2 Bethany Lutheran College           52.6 Private  1065    30.5
 3 Bethel University, Saint Paul, MN  73.3 Private  1145    39.4
 4 Carleton College                   92.6 Private  1400    54.3
 5 College of Saint Benedict          81.1 Private  1185    43.2
 6 Concordia College at Moorhead      69.4 Private  1145    36.6
 7 Concordia University-Saint Paul    47.9 Private   990    37.8
 8 Crossroads College                 26.9 Private   970    25.3
 9 Crown College                      51.3 Private  1030    33.2
10 Gustavus Adolphus College          81.7 Private  1225    43.8
# ℹ 23 more rows
…
Before we can compute correlations or fit a regression model, we need to convert educational sector into a numeric variable. In this numeric variable, we will assign the public schools one value, and the private schools another value. The numbers are just stand-ins for the category. As such, they are referred to as indicator variables, since the numerical values only indicate a category.

For example, here we will code public schools as 5 and private schools as 10. To create this new indicator variable, we mutate() a new column (called indicator) onto our mn data frame that takes the value of 5 if sector is Public and 10 if sector is Private. Here we use the if_else() function to carry out this logic.

# Create indicator variable
mn = mn |>
  mutate(
    indicator = if_else(sector == "Public", 5, 10)
  )

# View data frame
mn

# A tibble: 33 × 6
   name                            grad sector   sat tuition indicator
   <chr>                          <dbl> <chr>  <dbl>   <dbl>     <dbl>
 1 Augsburg College                65.2 Priva…  1030    39.3        10
 2 Bethany Lutheran College        52.6 Priva…  1065    30.5        10
 3 Bethel University, Saint Paul…  73.3 Priva…  1145    39.4        10
 4 Carleton College                92.6 Priva…  1400    54.3        10
 5 College of Saint Benedict       81.1 Priva…  1185    43.2        10
 6 Concordia College at Moorhead   69.4 Priva…  1145    36.6        10
 7 Concordia University-Saint Pa…  47.9 Priva…   990    37.8        10
 8 Crossroads College              26.9 Priva…   970    25.3        10
 9 Crown College                   51.3 Priva…  1030    33.2        10
10 Gustavus Adolphus College       81.7 Priva…  1225    43.8        10
# ℹ 23 more rows
…
# Create indicator variable
mn = mn |>
  mutate(
    indicator_2 = if_else(sector == "Public", 2, 7)
  )

# View data frame
mn

# A tibble: 33 × 7
   name                grad sector   sat tuition indicator indicator_2
   <chr>              <dbl> <chr>  <dbl>   <dbl>     <dbl>       <dbl>
 1 Augsburg College    65.2 Priva…  1030    39.3        10           7
 2 Bethany Lutheran …  52.6 Priva…  1065    30.5        10           7
 3 Bethel University…  73.3 Priva…  1145    39.4        10           7
 4 Carleton College    92.6 Priva…  1400    54.3        10           7
 5 College of Saint …  81.1 Priva…  1185    43.2        10           7
 6 Concordia College…  69.4 Priva…  1145    36.6        10           7
 7 Concordia Univers…  47.9 Priva…   990    37.8        10           7
 8 Crossroads College  26.9 Priva…   970    25.3        10           7
 9 Crown College       51.3 Priva…  1030    33.2        10           7
10 Gustavus Adolphus…  81.7 Priva…  1225    43.8        10           7
# ℹ 23 more rows
…
# Create indicator variable
mn = mn |>
  mutate(
    private = if_else(sector == "Private", 1, 0)
  )

# View data frame
mn

# A tibble: 33 × 8
   name        grad sector   sat tuition indicator indicator_2 private
   <chr>      <dbl> <chr>  <dbl>   <dbl>     <dbl>       <dbl>   <dbl>
 1 Augsburg …  65.2 Priva…  1030    39.3        10           7       1
 2 Bethany L…  52.6 Priva…  1065    30.5        10           7       1
 3 Bethel Un…  73.3 Priva…  1145    39.4        10           7       1
 4 Carleton …  92.6 Priva…  1400    54.3        10           7       1
 5 College o…  81.1 Priva…  1185    43.2        10           7       1
 6 Concordia…  69.4 Priva…  1145    36.6        10           7       1
 7 Concordia…  47.9 Priva…   990    37.8        10           7       1
 8 Crossroad…  26.9 Priva…   970    25.3        10           7       1
 9 Crown Col…  51.3 Priva…  1030    33.2        10           7       1
10 Gustavus …  81.7 Priva…  1225    43.8        10           7       1
# ℹ 23 more rows
…
18.2.2 Making Private Schools the Reference Group

What happens if we had coded the predictor so that private schools were the reference group (coded as 0), and public schools were coded as 1?

# Create indicator variable
mn = mn |>
  mutate(
    public = if_else(sector == "Public", 1, 0)
  )

# View data frame
mn

# A tibble: 33 × 9
   name        grad sector   sat tuition indicator indicator_2 private
   <chr>      <dbl> <chr>  <dbl>   <dbl>     <dbl>       <dbl>   <dbl>
 1 Augsburg …  65.2 Priva…  1030    39.3        10           7       1
 2 Bethany L…  52.6 Priva…  1065    30.5        10           7       1
 3 Bethel Un…  73.3 Priva…  1145    39.4        10           7       1
 4 Carleton …  92.6 Priva…  1400    54.3        10           7       1
 5 College o…  81.1 Priva…  1185    43.2        10           7       1
 6 Concordia…  69.4 Priva…  1145    36.6        10           7       1
 7 Concordia…  47.9 Priva…   990    37.8        10           7       1
 8 Crossroad…  26.9 Priva…   970    25.3        10           7       1
 9 Crown Col…  51.3 Priva…  1030    33.2        10           7       1
10 Gustavus …  81.7 Priva…  1225    43.8        10           7       1
# ℹ 23 more rows
# ℹ 1 more variable: public <dbl>
…
