22 More Interaction Effects – Statistical Modeling and Computation for Educational Scientists
…
# Load libraries
library(broom)
library(corrr)
library(educate)
library(patchwork)
library(tidyverse)

# Read in data
fert = read_csv(file = "https://raw.githubusercontent.com/zief0002/modeling/main/data/fertility.csv")

# View data
fert

# A tibble: 124 × 8
   country      region fertility_rate educ_female infant_mortality contraceptive
   <chr>        <chr>           <dbl>       <dbl>            <dbl>         <dbl>
 1 Albania      Europ…           1.49         9.1             15              46
 2 Algeria      Middl…           2.78         5.9             17.2            57
 3 Armenia      Europ…           1.39        10.8             14.7            57
 4 Austria      Europ…           1.42         8.9              3.3            66
 5 Azerbaijan   Europ…           1.92        10.5             30.8            55
 6 Bahamas, The Latin…           1.97        11.1             13.9            45
 7 Bangladesh   South…           2.5          4.6             33.1            62
 8 Belgium      Europ…           1.65        10.5              3.4            67
 9 Belize       Latin…           3.08         9.2             15.7            51
10 Benin        Sub-S…           5.13         2               58.5            16
# ℹ 114 more rows
# ℹ 2 more variables: gni_class <chr>, high_gni <dbl>
…
# Discretize female education level
fert = fert |>
  mutate(
    female_educ_discrete = case_when(
      educ_female < 4.8 ~ "Quartile 1",
      educ_female >= 4.8 & educ_female < 8 ~ "Quartile 2",
      educ_female >= 8 & educ_female < 10.25 ~ "Quartile 3",
      educ_female >= 10.25 ~ "Quartile 4"
      )
  )

# View data
fert

# A tibble: 124 × 9
   country      region fertility_rate educ_female infant_mortality contraceptive
   <chr>        <chr>           <dbl>       <dbl>            <dbl>         <dbl>
 1 Albania      Europ…           1.49         9.1             15              46
 2 Algeria      Middl…           2.78         5.9             17.2            57
 3 Armenia      Europ…           1.39        10.8             14.7            57
 4 Austria      Europ…           1.42         8.9              3.3            66
 5 Azerbaijan   Europ…           1.92        10.5             30.8            55
 6 Bahamas, The Latin…           1.97        11.1             13.9            45
 7 Bangladesh   South…           2.5          4.6             33.1            62
 8 Belgium      Europ…           1.65        10.5              3.4            67
 9 Belize       Latin…           3.08         9.2             15.7            51
10 Benin        Sub-S…           5.13         2               58.5            16
# ℹ 114 more rows
# ℹ 3 more variables: gni_class <chr>, high_gni <dbl>,
#   female_educ_discrete <chr>
…
