21 Introduction to Interaction Effects – Statistical Modeling and Computation for Educational Scientists
…
# Load libraries
library(broom)
library(corrr)
library(educate)
library(patchwork)
library(tidyverse)

# Read in data
work = read_csv(file = "https://raw.githubusercontent.com/zief0002/modeling/main/data/work-demands.csv")

# View data
work

# A tibble: 300 × 5
   guilt contact female authority married
   <dbl>   <dbl>  <dbl>     <dbl>   <dbl>
 1    10       3      1         3       1
 2    24       7      1         1       1
 3    27       5      1         1       1
 4    40       8      1         1       1
 5    23       5      1         1       1
 6    11       2      1         1       1
 7     6       3      1         3       1
 8    36       6      1         0       1
 9    26       6      1         1       1
10    28       3      1        -1       1
# ℹ 290 more rows
…
The two regression lines are not parallel; the effect of work contact outside normal working hours on guilt is different for females and non-females. This is evidence of an interaction in the sample data. The empirical data suggests that the effect of work contact outside normal working hours on guilt is positive for females and non-females, but that the magnitude (slope) of this relationship may be higher for females. In other words, increased amounts of work contact outside normal working hours may be associated with more guilt for females than for non-females.

The inferential question is now: Is this difference in effects (i.e., slopes) that we are seeing in the sample data “real”, or is it an artifact of sampling error? To evaluate this we need to fit a regression model where the effect of work contact on guilt is allowed to differ by gender. To do this, we create another predictor that is the product of the two predictors we believe interact and include that product term in the regression model along with the original predictors we used to create it (i.e., also include the constituent main-effects). In our example, we multiply the dummy-coded female predictor by the work contact (contact) predictor to create an interaction term. Then we fit a model that includes the dummy-coded female predictor, the work contact predictor, and the newly created interaction term.

# Create interaction term
work = work |>
  mutate(
    contact_female = contact * female
    )

# View data
work

# A tibble: 300 × 6
   guilt contact female authority married contact_female
   <dbl>   <dbl>  <dbl>     <dbl>   <dbl>          <dbl>
 1    10       3      1         3       1              3
 2    24       7      1         1       1              7
 3    27       5      1         1       1              5
 4    40       8      1         1       1              8
 5    23       5      1         1       1              5
 6    11       2      1         1       1              2
 7     6       3      1         3       1              3
 8    36       6      1         0       1              6
 9    26       6      1         1       1              6
10    28       3      1        -1       1              3
# ℹ 290 more rows
…
