Ordinary Least Squares (OLS) Estimation | Statistical Modeling and Computation for Educational Scientists
…
Residuals (\(e_i\));

Squared residuals (\(e_i^2\)); and finally,

Sum of the squared residuals (\(\sum e_i^2\)).

From the Riverview data set we have the observed \(X\) (education level) and \(Y\) (income) values, and from the fitted lm() we have the intercept and slope estimates for the ‘best’ fitting regression model.

# Step 1: Compute the predicted values of Y
city %>%
  mutate(
    y_hat = 11.321 + 2.651 * education
    )

# A tibble: 32 x 7
   education income seniority gender  male party       y_hat
       <dbl>  <dbl>     <dbl> <chr>  <dbl> <chr>       <dbl>
 1         8   37.4         7 male       1 Democrat     32.5
 2         8   26.4         9 female     0 Independent  32.5
 3        10   47.0        14 male       1 Democrat     37.8
 4        10   34.2        16 female     0 Independent  37.8
 5        10   25.5         1 female     0 Republican   37.8
 6        12   46.5        11 female     0 Democrat     43.1
 7        12   37.7        14 male       1 Democrat     43.1
 8        12   50.3        24 male       1 Democrat     43.1
 9        12   52.5        16 female     0 Independent  43.1
10        14   32.6         5 female     0 Independent  48.4
# … with 22 more rows

# Step 2: Compute the residuals
city %>%
  mutate(
    y_hat = 11.321 + 2.651 * education,
    errors = income - y_hat
    )

# A tibble: 32 x 8
   education income seniority gender  male party       y_hat errors
       <dbl>  <dbl>     <dbl> <chr>  <dbl> <chr>       <dbl>  <dbl>
 1         8   37.4         7 male       1 Democrat     32.5   4.92
 2         8   26.4         9 female     0 Independent  32.5  -6.10
 3        10   47.0        14 male       1 Democrat     37.8   9.20
 4        10   34.2        16 female     0 Independent  37.8  -3.65
 5        10   25.5         1 female     0 Republican   37.8 -12.4 
 6        12   46.5        11 female     0 Democrat     43.1   3.36
 7        12   37.7        14 male       1 Democrat     43.1  -5.48
 8        12   50.3        24 male       1 Democrat     43.1   7.13
 9        12   52.5        16 female     0 Independent  43.1   9.35
10        14   32.6         5 female     0 Independent  48.4 -15.8 
# … with 22 more rows

# Step 3: Compute the squared residuals
city %>%
  mutate(
    y_hat = 11.321 + 2.651 * education,
    errors = income - y_hat,
    sq_errors = errors ^ 2
  )

# A tibble: 32 x 9
   education income seniority gender  male party       y_hat errors sq_errors
       <dbl>  <dbl>     <dbl> <chr>  <dbl> <chr>       <dbl>  <dbl>     <dbl>
 1         8   37.4         7 male       1 Democrat     32.5   4.92      24.2
 2         8   26.4         9 female     0 Independent  32.5  -6.10      37.2
 3        10   47.0        14 male       1 Democrat     37.8   9.20      84.7
 4        10   34.2        16 female     0 Independent  37.8  -3.65      13.3
 5        10   25.5         1 female     0 Republican   37.8 -12.4      153. 
 6        12   46.5        11 female     0 Democrat     43.1   3.36      11.3
 7        12   37.7        14 male       1 Democrat     43.1  -5.48      30.0
 8        12   50.3        24 male       1 Democrat     43.1   7.13      50.9
 9        12   52.5        16 female     0 Independent  43.1   9.35      87.4
10        14   32.6         5 female     0 Independent  48.4 -15.8      250. 
# … with 22 more rows
…
